Data607_Proj1
…
we want jackpot winners and jackpot_options tidied such that:

outcome: roll, out of state winner, CVO

winner_count: number of winners

# cast win, type of winner, and number of winners
casted.winnings <- clean.winnings %>%
  pivot_wider(names_from = "jackpot_winners", values_from = "jackpot_winners")
casted.winnings

## # A tibble: 1,010 x 13
##    draw_date num1  num2  num3  num4  num5  powerball power_play est_jackpot
##    <chr>     <chr> <chr> <chr> <chr> <chr> <chr>     <chr>            <dbl>
##  1 10/05/20 6     14    36    51    54    4         2             70000000
##  2 10/02/20 4     8     10    43    53    7         2             60000000
##  3 09/28/20 15    23    34    51    55    4         2             50000000
##  4 09/25/20 37    43    44    45    53    25        3             40000000
##  5 09/21/20 1     9     22    36    68    22        2             80000000
##  6 09/18/20 14    19    39    47    51    15        3             70000000
##  7 09/14/20 11    27    31    36    67    11        2             60000000
##  8 09/11/20 6     17    24    53    57    3         3             50000000
##  9 09/07/20 11    20    41    42    56    6         2             40000000
## 10 09/04/20 4     8     30    52    59    2         10            80000000
## #  with 1,000 more rows, and 4 more variables: jackpot_options <chr>,
## #   Roll <chr>, `Out of State Winner` <chr>, `1` <chr>
…
